Chapter 38 Data manipulation in R | EDAV Fall 2021 Tues/Thurs Community Contributions
…
2.Import Using URL 

3.Import from local computer

38.0.3.1 Import from Package

One greatest thing about R is that it has a R dataset package which contains a variety of datasets that we can use.
To use those datasets, we just need to import the package into R.
eg If we want to use fastfood dataset from the openintro packaage, we just need to import openintro

library(openintro)
fastfood

## # A tibble: 515 × 17
##    restaurant item      calories cal_fat total_fat sat_fat trans_fat cholesterol
##    <chr>      <chr>        <dbl>   <dbl>     <dbl>   <dbl>     <dbl>       <dbl>
##  1 Mcdonalds  Artisan …      380      60         7       2       0            95
##  2 Mcdonalds  Single B…      840     410        45      17       1.5         130
##  3 Mcdonalds  Double B…     1130     600        67      27       3           220
##  4 Mcdonalds  Grilled …      750     280        31      10       0.5         155
##  5 Mcdonalds  Crispy B…      920     410        45      12       0.5         120
##  6 Mcdonalds  Big Mac        540     250        28      10       1            80
##  7 Mcdonalds  Cheesebu…      300     100        12       5       0.5          40
##  8 Mcdonalds  Classic …      510     210        24       4       0            65
##  9 Mcdonalds  Double C…      430     190        21      11       1            85
## 10 Mcdonalds  Double Q…      770     400        45      21       2.5         175
## # … with 505 more rows, and 9 more variables: sodium <dbl>, total_carb <dbl>,
## #   fiber <dbl>, sugar <dbl>, protein <dbl>, vit_a <dbl>, vit_c <dbl>,
## #   calcium <dbl>, salad <chr>

If there are other dataset called fastfood, to avoid confusion, we can specify it clearly with the package name

openintro::fastfood

## # A tibble: 515 × 17
##    restaurant item      calories cal_fat total_fat sat_fat trans_fat cholesterol
##    <chr>      <chr>        <dbl>   <dbl>     <dbl>   <dbl>     <dbl>       <dbl>
##  1 Mcdonalds  Artisan …      380      60         7       2       0            95
##  2 Mcdonalds  Single B…      840     410        45      17       1.5         130
##  3 Mcdonalds  Double B…     1130     600        67      27       3           220
##  4 Mcdonalds  Grilled …      750     280        31      10       0.5         155
##  5 Mcdonalds  Crispy B…      920     410        45      12       0.5         120
##  6 Mcdonalds  Big Mac        540     250        28      10       1            80
##  7 Mcdonalds  Cheesebu…      300     100        12       5       0.5          40
##  8 Mcdonalds  Classic …      510     210        24       4       0            65
##  9 Mcdonalds  Double C…      430     190        21      11       1            85
## 10 Mcdonalds  Double Q…      770     400        45      21       2.5         175
## # … with 505 more rows, and 9 more variables: sodium <dbl>, total_carb <dbl>,
## #   fiber <dbl>, sugar <dbl>, protein <dbl>, vit_a <dbl>, vit_c <dbl>,
## #   calcium <dbl>, salad <chr>

38.0.3.2 Import Using URL

We can also import dataset direcly from online sources. To achieve that, we will be using the read_csv function.
eg import the crime dataset from government official website.

read_csv("https://data.ny.gov/api/views/ca8h-8gjq/rows.csv")

## # A tibble: 21,228 × 15
##    County Agency      Year `Months Reporte… `Index Total` `Violent Total` Murder
##    <chr>  <chr>      <dbl>            <dbl>         <dbl>           <dbl>  <dbl>
##  1 Albany Albany Ci…  1990               NA          6635            1052      9
##  2 Albany Albany Ci…  1991               NA          7569            1201     11
##  3 Albany Albany Ci…  1992               NA          7791            1150      8
##  4 Albany Albany Ci…  1993               NA          7802            1238      6
##  5 Albany Albany Ci…  1994               NA          8648            1380     13
##  6 Albany Albany Ci…  1995               NA          8329            1227      7
##  7 Albany Albany Ci…  1996               NA          8130            1132     11
##  8 Albany Albany Ci…  1997               NA          7354            1035      7
##  9 Albany Albany Ci…  1998               NA          7320             995      2
## 10 Albany Albany Ci…  1999               NA          7475             897     12
## # … with 21,218 more rows, and 8 more variables: Rape <dbl>, Robbery <dbl>,
## #   Aggravated Assault <dbl>, Property Total <dbl>, Burglary <dbl>,
## #   Larceny <dbl>, Motor Vehicle Theft <dbl>, Region <chr>

We can alsp import dataset direcly from the github.

1.Go to the github repository link where you have the CSV file

2.Click on the raw option present on the top right of the data

3.Copy the URL and put into the read_csv function

eg read dataset from the github

read_csv("https://raw.githubusercontent.com/curran/data/gh-pages/dataSoup/datasets.csv")

## # A tibble: 57 × 12
##    `Dataset Name`  `Person Adding` `Date Added` `Dataset Link`  `Most Recent Ye…
##    <chr>           <chr>           <chr>        <chr>           <chr>           
##  1 2008 Election … EJ              11/7/2012    https://docs.g… 2008            
##  2 Occupy Oakland… EJ              11/7/2012    https://docs.g… 2012            
##  3 NYPD Stop-and-… EJ              11/7/2012    http://api.occ… 2011            
##  4 Presidential S… Kai             11/7/2012    http://millerc… 2012            
##  5 USDA National … Kai             11/7/2012    http://www.ars… 2012            
##  6 US Foreign Aid  Kai             11/7/2012    https://explor… 2010            
##  7 US Potato Stat… Kai             11/7/2012    https://explor… 2007            
##  8 Livestock and … Kai             11/7/2012    https://explor… 2011            
##  9 Mine Accidents… Kai             11/7/2012    http://www.msh… 2012            
## 10 Sloan Digital … Kai             11/7/2012    http://www.sds… 2011            
## # … with 47 more rows, and 7 more variables: Earliest Year In Data <dbl>,
## #   Status <chr>, Dataset Type <chr>, Documentation <chr>, Existing Work <chr>,
## #   Tags <chr>, Active <chr>
…
we can also group by more than one variables

eg gourp by number of cylinders and weight and then summarize the mean and count statistics of fuel consumption for cars.

mtcars %>%
  group_by(cyl,wt) %>%
  summarise(mean=mean(mpg),count=n())

## # A tibble: 30 × 4
## # Groups:   cyl [3]
##      cyl    wt  mean count
##    <dbl> <dbl> <dbl> <int>
##  1     4  1.51  30.4     1
##  2     4  1.62  30.4     1
##  3     4  1.84  33.9     1
##  4     4  1.94  27.3     1
##  5     4  2.14  26       1
##  6     4  2.2   32.4     1
##  7     4  2.32  22.8     1
##  8     4  2.46  21.5     1
##  9     4  2.78  21.4     1
## 10     4  3.15  22.8     1
## # … with 20 more rows
…
The dataset we will be using is seattlepets in the openintro package.

The goal is to find the dog names and cat names and decide which names are more popular for dogs and for cats.

dogcat <- seattlepets %>%
  filter(species %in% c("Dog","Cat")) %>%
  count(animal_name,species,name='total') %>%
  pivot_wider(id_cols=animal_name,names_from = species,values_from = total) %>%
  rowwise() %>%
  mutate(total=sum(Cat,Dog,na.rm = TRUE),proportion=Dog/total,ratio=Dog/Cat) %>%
  ungroup() %>%
  arrange(desc(total))
dogcat

## # A tibble: 13,920 × 6
##    animal_name   Cat   Dog total proportion ratio
##    <chr>       <int> <int> <int>      <dbl> <dbl>
##  1 <NA>          406    76   482      0.158 0.187
##  2 Lucy          102   337   439      0.768 3.30 
##  3 Charlie        81   306   387      0.791 3.78 
##  4 Luna          111   244   355      0.687 2.20 
##  5 Bella          82   249   331      0.752 3.04 
##  6 Max            83   186   269      0.691 2.24 
##  7 Daisy          40   221   261      0.847 5.52 
##  8 Molly          54   186   240      0.775 3.44 
##  9 Jack           65   167   232      0.720 2.57 
## 10 Lily           86   146   232      0.629 1.70 
## # … with 13,910 more rows
…
