Chapter 93 Dlookr package | EDAV Fall 2021 Tues/Thurs Community Contributions
…
#Reading data
manhattan <- read_excel("rollingsales_manhattan.xlsx", skip = 4)
dim(manhattan)

## [1] 19354    21

93.4.1 Data Diagnosis

93.4.1.1 Overall Diagnosis

# Get missing and unique count for each column
diagnose(manhattan)

## # A tibble: 21 × 6
##    variables       types  missing_count missing_percent unique_count unique_rate
##    <chr>           <chr>          <int>           <dbl>        <int>       <dbl>
##  1 BOROUGH         chara…             0          0                 1   0.0000517
##  2 NEIGHBORHOOD    chara…             0          0                39   0.00202  
##  3 BUILDING_CLASS… chara…             0          0                39   0.00202  
##  4 TAX_CLASS_AT_P… chara…            18          0.0930            9   0.000465 
##  5 BLOCK           numer…             0          0              1341   0.0693   
##  6 LOT             numer…             0          0              1662   0.0859   
##  7 EASEMENT        logic…         19354        100                 1   0.0000517
##  8 BUILDING_CLASS… chara…            18          0.0930          112   0.00579  
##  9 ADDRESS         chara…             0          0             19010   0.982    
## 10 APARTMENT_NUMB… chara…         10204         52.7            2630   0.136    
## # … with 11 more rows

# Using with dplyr and finding columns with missing data
diagnose(manhattan)

## # A tibble: 21 × 6
##    variables       types  missing_count missing_percent unique_count unique_rate
##    <chr>           <chr>          <int>           <dbl>        <int>       <dbl>
##  1 BOROUGH         chara…             0          0                 1   0.0000517
##  2 NEIGHBORHOOD    chara…             0          0                39   0.00202  
##  3 BUILDING_CLASS… chara…             0          0                39   0.00202  
##  4 TAX_CLASS_AT_P… chara…            18          0.0930            9   0.000465 
##  5 BLOCK           numer…             0          0              1341   0.0693   
##  6 LOT             numer…             0          0              1662   0.0859   
##  7 EASEMENT        logic…         19354        100                 1   0.0000517
##  8 BUILDING_CLASS… chara…            18          0.0930          112   0.00579  
##  9 ADDRESS         chara…             0          0             19010   0.982    
## 10 APARTMENT_NUMB… chara…         10204         52.7            2630   0.136    
## # … with 11 more rows
…
93.4.1.3 Categorical data diagnosis

# Looking at categorical data
diagnose_category(manhattan)

## # A tibble: 83 × 6
##    variables    levels                        N  freq  ratio  rank
##    <chr>        <chr>                     <int> <int>  <dbl> <int>
##  1 BOROUGH      1                         19354 19354 100        1
##  2 NEIGHBORHOOD UPPER EAST SIDE (59-79)   19354  1999  10.3      1
##  3 NEIGHBORHOOD UPPER EAST SIDE (79-96)   19354  1886   9.74     2
##  4 NEIGHBORHOOD UPPER WEST SIDE (59-79)   19354  1746   9.02     3
##  5 NEIGHBORHOOD MIDTOWN EAST              19354  1160   5.99     4
##  6 NEIGHBORHOOD UPPER WEST SIDE (79-96)   19354  1151   5.95     5
##  7 NEIGHBORHOOD CHELSEA                   19354   912   4.71     6
##  8 NEIGHBORHOOD MIDTOWN WEST              19354   881   4.55     7
##  9 NEIGHBORHOOD GREENWICH VILLAGE-CENTRAL 19354   759   3.92     8
## 10 NEIGHBORHOOD HARLEM-CENTRAL            19354   708   3.66     9
## # … with 73 more rows
…
###Bivariate Analysis

# Looking at the numerical data
correlate(manhattan)

## # A tibble: 90 × 3
##    var1              var2  coef_corr
##    <fct>             <fct>     <dbl>
##  1 LOT               BLOCK  -0.185  
##  2 ZIP_CODE          BLOCK   0.239  
##  3 RESIDENTIAL_UNITS BLOCK   0.0462 
##  4 COMMERCIAL_UNITS  BLOCK  -0.0808 
##  5 TOTAL_UNITS       BLOCK   0.0377 
##  6 LAND_SQUARE_FEET  BLOCK  -0.00909
##  7 GROSS_SQUARE_FEET BLOCK  -0.0860 
##  8 YEAR_BUILT        BLOCK  -0.0974 
##  9 SALE_PRICE        BLOCK  -0.0487 
## 10 BLOCK             LOT    -0.185  
## # … with 80 more rows

# Looking at the numerical data
correlate(manhattan, `SALE_PRICE`,`YEAR_BUILT`,`LAND_SQUARE_FEET`)

## # A tibble: 27 × 3
##    var1             var2              coef_corr
##    <fct>            <fct>                 <dbl>
##  1 LAND_SQUARE_FEET BLOCK              -0.00909
##  2 YEAR_BUILT       BLOCK              -0.0974 
##  3 SALE_PRICE       BLOCK              -0.0487 
##  4 LAND_SQUARE_FEET LOT                 0.0194 
##  5 YEAR_BUILT       LOT                 0.472  
##  6 SALE_PRICE       LOT                 0.00774
##  7 LAND_SQUARE_FEET ZIP_CODE           -0.0222 
##  8 YEAR_BUILT       ZIP_CODE            0.0504 
##  9 SALE_PRICE       ZIP_CODE           -0.0249 
## 10 LAND_SQUARE_FEET RESIDENTIAL_UNITS   0.114  
## # … with 17 more rows
…
