…
### Data Diagnosis

#### Overall Diagnosis


```r
# Get missing and unique count for each column
diagnose(manhattan)
```

```
## # A tibble: 21 × 6
##    variables                 types     missing_count missing_p…¹ uniqu…² uniqu…³
##    <chr>                     <chr>             <int>       <dbl>   <int>   <dbl>
##  1 BOROUGH                   character             0      0            1 5.17e-5
##  2 NEIGHBORHOOD              character             0      0           39 2.02e-3
##  3 BUILDING_CLASS_CATEGORY   character             0      0           39 2.02e-3
##  4 TAX_CLASS_AT_PRESENT      character            18      0.0930       9 4.65e-4
##  5 BLOCK                     numeric               0      0         1341 6.93e-2
##  6 LOT                       numeric               0      0         1662 8.59e-2
##  7 EASEMENT                  logical           19354    100            1 5.17e-5
##  8 BUILDING_CLASS_AT_PRESENT character            18      0.0930     112 5.79e-3
##  9 ADDRESS                   character             0      0        19010 9.82e-1
## 10 APARTMENT_NUMBER          character         10204     52.7       2630 1.36e-1
## # … with 11 more rows, and abbreviated variable names ¹​missing_percent,
## #   ²​unique_count, ³​unique_rate
```

```r
# Using with dplyr and finding columns with missing data
diagnose(manhattan)
```

```
## # A tibble: 21 × 6
##    variables                 types     missing_count missing_p…¹ uniqu…² uniqu…³
##    <chr>                     <chr>             <int>       <dbl>   <int>   <dbl>
##  1 BOROUGH                   character             0      0            1 5.17e-5
##  2 NEIGHBORHOOD              character             0      0           39 2.02e-3
##  3 BUILDING_CLASS_CATEGORY   character             0      0           39 2.02e-3
##  4 TAX_CLASS_AT_PRESENT      character            18      0.0930       9 4.65e-4
##  5 BLOCK                     numeric               0      0         1341 6.93e-2
##  6 LOT                       numeric               0      0         1662 8.59e-2
##  7 EASEMENT                  logical           19354    100            1 5.17e-5
##  8 BUILDING_CLASS_AT_PRESENT character            18      0.0930     112 5.79e-3
##  9 ADDRESS                   character             0      0        19010 9.82e-1
## 10 APARTMENT_NUMBER          character         10204     52.7       2630 1.36e-1
## # … with 11 more rows, and abbreviated variable names ¹​missing_percent,
## #   ²​unique_count, ³​unique_rate
```
…
```r
# Looking at categorical data
diagnose_category(manhattan)
```

```
## # A tibble: 83 × 6
##    variables    levels                        N  freq  ratio  rank
##    <chr>        <chr>                     <int> <int>  <dbl> <int>
##  1 BOROUGH      1                         19354 19354 100        1
##  2 NEIGHBORHOOD UPPER EAST SIDE (59-79)   19354  1999  10.3      1
##  3 NEIGHBORHOOD UPPER EAST SIDE (79-96)   19354  1886   9.74     2
##  4 NEIGHBORHOOD UPPER WEST SIDE (59-79)   19354  1746   9.02     3
##  5 NEIGHBORHOOD MIDTOWN EAST              19354  1160   5.99     4
##  6 NEIGHBORHOOD UPPER WEST SIDE (79-96)   19354  1151   5.95     5
##  7 NEIGHBORHOOD CHELSEA                   19354   912   4.71     6
##  8 NEIGHBORHOOD MIDTOWN WEST              19354   881   4.55     7
##  9 NEIGHBORHOOD GREENWICH VILLAGE-CENTRAL 19354   759   3.92     8
## 10 NEIGHBORHOOD HARLEM-CENTRAL            19354   708   3.66     9
## # … with 73 more rows
```
…
<img src="dlookr_files/figure-html/plot normality dplyr-1.png" width="672" style="display: block; margin: auto;" /><img src="dlookr_files/figure-html/plot normality dplyr-2.png" width="672" style="display: block; margin: auto;" /><img src="dlookr_files/figure-html/plot normality dplyr-3.png" width="672" style="display: block; margin: auto;" />

###Bivariate Analysis


```r
# Looking at the numerical data
correlate(manhattan)
```

```
## # A tibble: 90 × 3
##    var1              var2  coef_corr
##    <fct>             <fct>     <dbl>
##  1 LOT               BLOCK  -0.185  
##  2 ZIP_CODE          BLOCK   0.239  
##  3 RESIDENTIAL_UNITS BLOCK   0.0462 
##  4 COMMERCIAL_UNITS  BLOCK  -0.0808 
##  5 TOTAL_UNITS       BLOCK   0.0377 
##  6 LAND_SQUARE_FEET  BLOCK  -0.00909
##  7 GROSS_SQUARE_FEET BLOCK  -0.0860 
##  8 YEAR_BUILT        BLOCK  -0.0974 
##  9 SALE_PRICE        BLOCK  -0.0487 
## 10 BLOCK             LOT    -0.185  
## # … with 80 more rows
```

```r
# Looking at the numerical data
correlate(manhattan, `SALE_PRICE`,`YEAR_BUILT`,`LAND_SQUARE_FEET`)
```

```
## # A tibble: 27 × 3
##    var1             var2              coef_corr
##    <fct>            <fct>                 <dbl>
##  1 LAND_SQUARE_FEET BLOCK              -0.00909
##  2 YEAR_BUILT       BLOCK              -0.0974 
##  3 SALE_PRICE       BLOCK              -0.0487 
##  4 LAND_SQUARE_FEET LOT                 0.0194 
##  5 YEAR_BUILT       LOT                 0.472  
##  6 SALE_PRICE       LOT                 0.00774
##  7 LAND_SQUARE_FEET ZIP_CODE           -0.0222 
##  8 YEAR_BUILT       ZIP_CODE            0.0504 
##  9 SALE_PRICE       ZIP_CODE           -0.0249 
## 10 LAND_SQUARE_FEET RESIDENTIAL_UNITS   0.114  
## # … with 17 more rows
```
…
