Chapter 72 R based data organization and visualization | EDAV Fall 2021 Tues/Thurs Community Contributions
…
72.3.2 filter()

filter() function allows us to select those variable with specific values. For example, in the data seattlepets from the package openintro, we can use filter to find all dogs’ name:

df <- openintro::seattlepets %>% filter(species == "Dog")
df

## # A tibble: 35,181 × 7
##    license_issue_date license_number animal_name species primary_breed          
##    <date>             <chr>          <chr>       <chr>   <chr>                  
##  1 2018-11-16         8002756        Wall-E      Dog     Mixed Breed, Medium (u…
##  2 2018-11-11         S124529        Andre       Dog     Terrier, Jack Russell  
##  3 2018-11-21         903793         Mac         Dog     Retriever, Labrador    
##  4 2018-12-16         S138529        Cody        Dog     Retriever, Labrador    
##  5 2017-10-04         580652         Millie      Dog     Terrier, Boston        
##  6 2018-12-23         961052         Sabre       Dog     Terrier                
##  7 2018-12-07         S125461        Thomas      Dog     Chihuahua, Short Coat  
##  8 2018-11-07         8002543        Lulu        Dog     Vizsla, Smooth Haired  
##  9 2018-12-15         S138838        Milo        Dog     Boxer                  
## 10 2018-11-27         S123980        Anubis      Dog     Poodle, Standard       
## # … with 35,171 more rows, and 2 more variables: secondary_breed <chr>,
## #   zip_code <chr>

72.3.3 group_by()

group_by()function allow us to group the data by some variables.

For example, we want to group the data that crimes in 2020 by county and region, we can do this

df <- read.csv("https://data.ny.gov/api/views/ca8h-8gjq/rows.csv")
df %>% filter(Year == 2020) %>% group_by(County, Region)

## # A tibble: 624 × 15
## # Groups:   County, Region [62]
##    County Agency     Year Months.Reported Index.Total Violent.Total Murder  Rape
##    <chr>  <chr>     <int>           <int>       <int>         <int>  <int> <int>
##  1 Albany Albany C…  2020              12        3547           875     18    61
##  2 Albany Albany C…  2020              12           2             0      0     0
##  3 Albany Albany C…  2020              12         127            12      0     4
##  4 Albany Albany C…  2020              12         103            26      0    18
##  5 Albany Altamont…  2020              12           6             2      0     0
##  6 Albany Bethlehe…  2020              12         407            25      1     7
##  7 Albany Coeymans…  2020              12          49             8      0     0
##  8 Albany Cohoes C…  2020              12         134            23      0     3
##  9 Albany Colonie …  2020              12        1936            83      0     4
## 10 Albany County T…  2020              NA        7412          1115     19   109
## # … with 614 more rows, and 7 more variables: Robbery <int>,
## #   Aggravated.Assault <int>, Property.Total <int>, Burglary <int>,
## #   Larceny <int>, Motor.Vehicle.Theft <int>, Region <chr>

72.3.4 summarise()

We can use summarise() to measure some value for a certain group. For example, in data set ames from openintro, we want to know the average price and area for each Neighborhood, we can do this:

df <-openintro::ames %>%
  group_by(Neighborhood) %>%
  summarise(price = mean(price), area = mean(area))

df

## # A tibble: 28 × 3
##    Neighborhood   price  area
##    <fct>          <dbl> <dbl>
##  1 Blmngtn      196662. 1405.
##  2 Blueste      143590  1160.
##  3 BrDale       105608. 1115.
##  4 BrkSide      124756. 1235.
##  5 ClearCr      208662. 1744.
##  6 CollgCr      201803. 1496.
##  7 Crawfor      207551. 1723.
##  8 Edwards      130843. 1338.
##  9 Gilbert      190647. 1621.
## 10 Greens       193531. 1157.
## # … with 18 more rows

72.3.5 summarise_at()

For some specific situation, we need to summaries many variables. Writing them one by one will be time comsuming and we can do this by using summarise_at().

For Example, we want to know for year 2020, the total number of each type of crime happened in every county. We can write something like this:

df2020 <- read.csv("https://data.ny.gov/api/views/ca8h-8gjq/rows.csv") %>% 
  filter(Year == 2020)
df2020$Property.Total = NULL
df2020 %>%
  group_by(County) %>%
  summarise_at(.vars = names(.)[7:13], .funs = c(sum = "sum"))

## # A tibble: 62 × 8
##    County      Murder_sum Rape_sum Robbery_sum Aggravated.Assault_… Burglary_sum
##    <chr>            <int>    <int>       <int>                <int>        <int>
##  1 Albany              38      218         426                 1548         1416
##  2 Allegany             6       76           6                   58          172
##  3 Bronx              111      523        3519                 8976         2230
##  4 Broome              10      252         156                  902         1336
##  5 Cattaraugus          2       74          12                  162          274
##  6 Cayuga               4      126          32                  236          290
##  7 Chautauqua           2      164          66                  552         1080
##  8 Chemung              4       64          56                  220          262
##  9 Chenango             2      104          14                  106          292
## 10 Clinton              2      118           6                  130          246
## # … with 52 more rows, and 2 more variables: Larceny_sum <int>,
## #   Motor.Vehicle.Theft_sum <int>
…
