Chapter 44 Raincloud plot 101: density plot or boxplot？Why not do both! | EDAV Fall 2021 Tues/Thurs Community Contributions
…
Now, you can not only see the density shape from the ridges, statistics from the boxplots, but also a scatter plot that informs us that loan amounts are predominantly multiples of $5,000, such as $35,000 and $40,000, which is the conclusion we are expected to get in 5. a)!

Without further ado, lets break it down and see how it is created!

##Components of raincloud plot.

In this section, I will use the variable verified_income with less cardinality to demonstrate one way to generate raincloud plot:

loans_full_schema %>%
  select(verified_income, loan_amount)

## # A tibble: 10,000 × 2
##    verified_income loan_amount
##    <fct>                 <int>
##  1 Verified              28000
##  2 Not Verified           5000
##  3 Source Verified        2000
##  4 Not Verified          21600
##  5 Verified              23000
##  6 Not Verified           5000
##  7 Source Verified       24000
##  8 Source Verified       20000
##  9 Source Verified       20000
## 10 Not Verified           6400
## # … with 9,990 more rows
…
load(file = "resources/raincloud_plot_tutorial/walmart_monthly_sales.RData")
walmart_monthly_sales

## # A tibble: 630 × 5
##    state_id store_id  year month  sales
##    <chr>    <chr>    <int> <int>  <dbl>
##  1 CA       CA_1      2012     1 106579
##  2 CA       CA_2      2012     1  77786
##  3 CA       CA_3      2012     1 160276
##  4 CA       CA_4      2012     1  58738
##  5 TX       TX_1      2012     1  77448
##  6 TX       TX_2      2012     1 107283
##  7 TX       TX_3      2012     1  80685
##  8 WI       WI_1      2012     1  51901
##  9 WI       WI_2      2012     1  57600
## 10 WI       WI_3      2012     1 115079
## # … with 620 more rows
…
