Chapter 29 Tidyverse Cheatsheet | EDAV Fall 2021 Tues/Thurs Community Contributions
…
Usually, before we plot the data, we need to preprocess the data first. And we use tidyverse to process data commonly. And I find myself can not remember all the tidyverse functions to deal with the data. So I create a cheat sheet that includes some commonly used functions in tidyverse to process the data.

reference:
https://www.rdocumentation.org/,
https://dplyr.tidyverse.org/index.html

29.2 select()

To select some columns in the data, we only need to add the names of columns to the Select() function.
(Use dataset “mpg” as an example dataset.)

mpg %>% 
  select(year,manufacturer,model)

## # A tibble: 234 × 3
##     year manufacturer model     
##    <int> <chr>        <chr>     
##  1  1999 audi         a4        
##  2  1999 audi         a4        
##  3  2008 audi         a4        
##  4  2008 audi         a4        
##  5  1999 audi         a4        
##  6  1999 audi         a4        
##  7  2008 audi         a4        
##  8  1999 audi         a4 quattro
##  9  1999 audi         a4 quattro
## 10  2008 audi         a4 quattro
## # … with 224 more rows

Also, we can use start_col:end_col.

mpg %>% 
  select(year:drv)

## # A tibble: 234 × 4
##     year   cyl trans      drv  
##    <int> <int> <chr>      <chr>
##  1  1999     4 auto(l5)   f    
##  2  1999     4 manual(m5) f    
##  3  2008     4 manual(m6) f    
##  4  2008     4 auto(av)   f    
##  5  1999     6 auto(l5)   f    
##  6  1999     6 manual(m5) f    
##  7  2008     6 auto(av)   f    
##  8  1999     4 manual(m5) 4    
##  9  1999     4 auto(l5)   4    
## 10  2008     4 manual(m6) 4    
## # … with 224 more rows

We can select columns that have the same structure using starts_with(),end_with() or contains().

mpg %>% 
  select(starts_with("m"),contains("c"),ends_with("y"))

## # A tibble: 234 × 6
##    manufacturer model        cyl   cty class     hwy
##    <chr>        <chr>      <int> <int> <chr>   <int>
##  1 audi         a4             4    18 compact    29
##  2 audi         a4             4    21 compact    29
##  3 audi         a4             4    20 compact    31
##  4 audi         a4             4    21 compact    30
##  5 audi         a4             6    16 compact    26
##  6 audi         a4             6    18 compact    26
##  7 audi         a4             6    18 compact    27
##  8 audi         a4 quattro     4    18 compact    26
##  9 audi         a4 quattro     4    16 compact    25
## 10 audi         a4 quattro     4    20 compact    28
## # … with 224 more rows

select_if() can be used to select columns that have a specific data type. For example, select_if(is.character) can select all the character type columns. Similarly, we can use is.numeric, is.integer, is.factor and so on.

mpg %>% 
  select_if(is.numeric)

## # A tibble: 234 × 5
##    displ  year   cyl   cty   hwy
##    <dbl> <int> <int> <int> <int>
##  1   1.8  1999     4    18    29
##  2   1.8  1999     4    21    29
##  3   2    2008     4    20    31
##  4   2    2008     4    21    30
##  5   2.8  1999     6    16    26
##  6   2.8  1999     6    18    26
##  7   3.1  2008     6    18    27
##  8   1.8  1999     4    18    26
##  9   1.8  1999     4    16    25
## 10   2    2008     4    20    28
## # … with 224 more rows

select_if() can select the columns that meet some conditions.

mpg %>% select(where(is.numeric)) %>% 
  select(where(~mean(.)<100))

## # A tibble: 234 × 4
##    displ   cyl   cty   hwy
##    <dbl> <int> <int> <int>
##  1   1.8     4    18    29
##  2   1.8     4    21    29
##  3   2       4    20    31
##  4   2       4    21    30
##  5   2.8     6    16    26
##  6   2.8     6    18    26
##  7   3.1     6    18    27
##  8   1.8     4    18    26
##  9   1.8     4    16    25
## 10   2       4    20    28
## # … with 224 more rows

29.3 filter()

We can use filter() to choose certain rows.

mpg %>% 
  filter(year==1999)

## # A tibble: 117 × 11
##    manufacturer model     displ  year   cyl trans  drv     cty   hwy fl    class
##    <chr>        <chr>     <dbl> <int> <int> <chr>  <chr> <int> <int> <chr> <chr>
##  1 audi         a4          1.8  1999     4 auto(… f        18    29 p     comp…
##  2 audi         a4          1.8  1999     4 manua… f        21    29 p     comp…
##  3 audi         a4          2.8  1999     6 auto(… f        16    26 p     comp…
##  4 audi         a4          2.8  1999     6 manua… f        18    26 p     comp…
##  5 audi         a4 quatt…   1.8  1999     4 manua… 4        18    26 p     comp…
##  6 audi         a4 quatt…   1.8  1999     4 auto(… 4        16    25 p     comp…
##  7 audi         a4 quatt…   2.8  1999     6 auto(… 4        15    25 p     comp…
##  8 audi         a4 quatt…   2.8  1999     6 manua… 4        17    25 p     comp…
##  9 audi         a6 quatt…   2.8  1999     6 auto(… 4        15    24 p     mids…
## 10 chevrolet    c1500 su…   5.7  1999     8 auto(… r        13    17 r     suv  
## # … with 107 more rows

mpg %>% 
  filter(year!=1999)

## # A tibble: 117 × 11
##    manufacturer model     displ  year   cyl trans  drv     cty   hwy fl    class
##    <chr>        <chr>     <dbl> <int> <int> <chr>  <chr> <int> <int> <chr> <chr>
##  1 audi         a4          2    2008     4 manua… f        20    31 p     comp…
##  2 audi         a4          2    2008     4 auto(… f        21    30 p     comp…
##  3 audi         a4          3.1  2008     6 auto(… f        18    27 p     comp…
##  4 audi         a4 quatt…   2    2008     4 manua… 4        20    28 p     comp…
##  5 audi         a4 quatt…   2    2008     4 auto(… 4        19    27 p     comp…
##  6 audi         a4 quatt…   3.1  2008     6 auto(… 4        17    25 p     comp…
##  7 audi         a4 quatt…   3.1  2008     6 manua… 4        15    25 p     comp…
##  8 audi         a6 quatt…   3.1  2008     6 auto(… 4        17    25 p     mids…
##  9 audi         a6 quatt…   4.2  2008     8 auto(… 4        16    23 p     mids…
## 10 chevrolet    c1500 su…   5.3  2008     8 auto(… r        14    20 r     suv  
## # … with 107 more rows

filter(condition1,condition2) will return the rows that meet the two conditions.

mpg %>% 
  filter(year==1999,cyl==4)

## # A tibble: 45 × 11
##    manufacturer model   displ  year   cyl trans   drv     cty   hwy fl    class 
##    <chr>        <chr>   <dbl> <int> <int> <chr>   <chr> <int> <int> <chr> <chr> 
##  1 audi         a4        1.8  1999     4 auto(l… f        18    29 p     compa…
##  2 audi         a4        1.8  1999     4 manual… f        21    29 p     compa…
##  3 audi         a4 qua…   1.8  1999     4 manual… 4        18    26 p     compa…
##  4 audi         a4 qua…   1.8  1999     4 auto(l… 4        16    25 p     compa…
##  5 chevrolet    malibu    2.4  1999     4 auto(l… f        19    27 r     midsi…
##  6 dodge        carava…   2.4  1999     4 auto(l… f        18    24 r     miniv…
##  7 honda        civic     1.6  1999     4 manual… f        28    33 r     subco…
##  8 honda        civic     1.6  1999     4 auto(l… f        24    32 r     subco…
##  9 honda        civic     1.6  1999     4 manual… f        25    32 r     subco…
## 10 honda        civic     1.6  1999     4 manual… f        23    29 p     subco…
## # … with 35 more rows

filter(condition1|condition2) will return the rows that meet condition1 or condition2.

mpg %>% 
  filter(year==1999|cyl==4)

## # A tibble: 153 × 11
##    manufacturer model      displ  year   cyl trans drv     cty   hwy fl    class
##    <chr>        <chr>      <dbl> <int> <int> <chr> <chr> <int> <int> <chr> <chr>
##  1 audi         a4           1.8  1999     4 auto… f        18    29 p     comp…
##  2 audi         a4           1.8  1999     4 manu… f        21    29 p     comp…
##  3 audi         a4           2    2008     4 manu… f        20    31 p     comp…
##  4 audi         a4           2    2008     4 auto… f        21    30 p     comp…
##  5 audi         a4           2.8  1999     6 auto… f        16    26 p     comp…
##  6 audi         a4           2.8  1999     6 manu… f        18    26 p     comp…
##  7 audi         a4 quattro   1.8  1999     4 manu… 4        18    26 p     comp…
##  8 audi         a4 quattro   1.8  1999     4 auto… 4        16    25 p     comp…
##  9 audi         a4 quattro   2    2008     4 manu… 4        20    28 p     comp…
## 10 audi         a4 quattro   2    2008     4 auto… 4        19    27 p     comp…
## # … with 143 more rows

filter(xor(condition1,condition2)) will return rows that only meet one condition.

mpg %>% 
  filter(xor(year==1999,cyl==4))

## # A tibble: 108 × 11
##    manufacturer model     displ  year   cyl trans  drv     cty   hwy fl    class
##    <chr>        <chr>     <dbl> <int> <int> <chr>  <chr> <int> <int> <chr> <chr>
##  1 audi         a4          2    2008     4 manua… f        20    31 p     comp…
##  2 audi         a4          2    2008     4 auto(… f        21    30 p     comp…
##  3 audi         a4          2.8  1999     6 auto(… f        16    26 p     comp…
##  4 audi         a4          2.8  1999     6 manua… f        18    26 p     comp…
##  5 audi         a4 quatt…   2    2008     4 manua… 4        20    28 p     comp…
##  6 audi         a4 quatt…   2    2008     4 auto(… 4        19    27 p     comp…
##  7 audi         a4 quatt…   2.8  1999     6 auto(… 4        15    25 p     comp…
##  8 audi         a4 quatt…   2.8  1999     6 manua… 4        17    25 p     comp…
##  9 audi         a6 quatt…   2.8  1999     6 auto(… 4        15    24 p     mids…
## 10 chevrolet    c1500 su…   5.7  1999     8 auto(… r        13    17 r     suv  
## # … with 98 more rows

filter_all() will filter all the columns.

mpg %>% 
  filter_all(any_vars(.==4))

## # A tibble: 164 × 11
##    manufacturer model      displ  year   cyl trans drv     cty   hwy fl    class
##    <chr>        <chr>      <dbl> <int> <int> <chr> <chr> <int> <int> <chr> <chr>
##  1 audi         a4           1.8  1999     4 auto… f        18    29 p     comp…
##  2 audi         a4           1.8  1999     4 manu… f        21    29 p     comp…
##  3 audi         a4           2    2008     4 manu… f        20    31 p     comp…
##  4 audi         a4           2    2008     4 auto… f        21    30 p     comp…
##  5 audi         a4 quattro   1.8  1999     4 manu… 4        18    26 p     comp…
##  6 audi         a4 quattro   1.8  1999     4 auto… 4        16    25 p     comp…
##  7 audi         a4 quattro   2    2008     4 manu… 4        20    28 p     comp…
##  8 audi         a4 quattro   2    2008     4 auto… 4        19    27 p     comp…
##  9 audi         a4 quattro   2.8  1999     6 auto… 4        15    25 p     comp…
## 10 audi         a4 quattro   2.8  1999     6 manu… 4        17    25 p     comp…
## # … with 154 more rows

filter_if() first find the columns that meet some condition then filter.

mpg %>% 
  filter_if(is.character,any_vars(.==4))

## # A tibble: 103 × 11
##    manufacturer model      displ  year   cyl trans drv     cty   hwy fl    class
##    <chr>        <chr>      <dbl> <int> <int> <chr> <chr> <int> <int> <chr> <chr>
##  1 audi         a4 quattro   1.8  1999     4 manu… 4        18    26 p     comp…
##  2 audi         a4 quattro   1.8  1999     4 auto… 4        16    25 p     comp…
##  3 audi         a4 quattro   2    2008     4 manu… 4        20    28 p     comp…
##  4 audi         a4 quattro   2    2008     4 auto… 4        19    27 p     comp…
##  5 audi         a4 quattro   2.8  1999     6 auto… 4        15    25 p     comp…
##  6 audi         a4 quattro   2.8  1999     6 manu… 4        17    25 p     comp…
##  7 audi         a4 quattro   3.1  2008     6 auto… 4        17    25 p     comp…
##  8 audi         a4 quattro   3.1  2008     6 manu… 4        15    25 p     comp…
##  9 audi         a6 quattro   2.8  1999     6 auto… 4        15    24 p     mids…
## 10 audi         a6 quattro   3.1  2008     6 auto… 4        17    25 p     mids…
## # … with 93 more rows

filter_at() need to select columns in vars().

mpg %>% 
  filter_at(vars(displ),all_vars(.>3))

## # A tibble: 126 × 11
##    manufacturer model     displ  year   cyl trans  drv     cty   hwy fl    class
##    <chr>        <chr>     <dbl> <int> <int> <chr>  <chr> <int> <int> <chr> <chr>
##  1 audi         a4          3.1  2008     6 auto(… f        18    27 p     comp…
##  2 audi         a4 quatt…   3.1  2008     6 auto(… 4        17    25 p     comp…
##  3 audi         a4 quatt…   3.1  2008     6 manua… 4        15    25 p     comp…
##  4 audi         a6 quatt…   3.1  2008     6 auto(… 4        17    25 p     mids…
##  5 audi         a6 quatt…   4.2  2008     8 auto(… 4        16    23 p     mids…
##  6 chevrolet    c1500 su…   5.3  2008     8 auto(… r        14    20 r     suv  
##  7 chevrolet    c1500 su…   5.3  2008     8 auto(… r        11    15 e     suv  
##  8 chevrolet    c1500 su…   5.3  2008     8 auto(… r        14    20 r     suv  
##  9 chevrolet    c1500 su…   5.7  1999     8 auto(… r        13    17 r     suv  
## 10 chevrolet    c1500 su…   6    2008     8 auto(… r        12    17 r     suv  
## # … with 116 more rows

29.4 mutate()

mutate() can add a new column based on the existing column.

mpg %>% 
  select(manufacturer,model,year) %>% 
  mutate(year2=year-2000)

## # A tibble: 234 × 4
##    manufacturer model       year year2
##    <chr>        <chr>      <int> <dbl>
##  1 audi         a4          1999    -1
##  2 audi         a4          1999    -1
##  3 audi         a4          2008     8
##  4 audi         a4          2008     8
##  5 audi         a4          1999    -1
##  6 audi         a4          1999    -1
##  7 audi         a4          2008     8
##  8 audi         a4 quattro  1999    -1
##  9 audi         a4 quattro  1999    -1
## 10 audi         a4 quattro  2008     8
## # … with 224 more rows

We can use ifelse() to choose data.

mpg %>% 
  select(manufacturer,model,year) %>% 
  mutate(year2=ifelse(year>2000,0,NA))

## # A tibble: 234 × 4
##    manufacturer model       year year2
##    <chr>        <chr>      <int> <dbl>
##  1 audi         a4          1999    NA
##  2 audi         a4          1999    NA
##  3 audi         a4          2008     0
##  4 audi         a4          2008     0
##  5 audi         a4          1999    NA
##  6 audi         a4          1999    NA
##  7 audi         a4          2008     0
##  8 audi         a4 quattro  1999    NA
##  9 audi         a4 quattro  1999    NA
## 10 audi         a4 quattro  2008     0
## # … with 224 more rows

mutate_all() can change all the columns.

mpg %>% 
  mutate_all(toupper)

## # A tibble: 234 × 11
##    manufacturer model      displ year  cyl   trans drv   cty   hwy   fl    class
##    <chr>        <chr>      <chr> <chr> <chr> <chr> <chr> <chr> <chr> <chr> <chr>
##  1 AUDI         A4         1.8   1999  4     AUTO… F     18    29    P     COMP…
##  2 AUDI         A4         1.8   1999  4     MANU… F     21    29    P     COMP…
##  3 AUDI         A4         2     2008  4     MANU… F     20    31    P     COMP…
##  4 AUDI         A4         2     2008  4     AUTO… F     21    30    P     COMP…
##  5 AUDI         A4         2.8   1999  6     AUTO… F     16    26    P     COMP…
##  6 AUDI         A4         2.8   1999  6     MANU… F     18    26    P     COMP…
##  7 AUDI         A4         3.1   2008  6     AUTO… F     18    27    P     COMP…
##  8 AUDI         A4 QUATTRO 1.8   1999  4     MANU… 4     18    26    P     COMP…
##  9 AUDI         A4 QUATTRO 1.8   1999  4     AUTO… 4     16    25    P     COMP…
## 10 AUDI         A4 QUATTRO 2     2008  4     MANU… 4     20    28    P     COMP…
## # … with 224 more rows

mutate_if() can select certain columns and mutate.

mpg %>% 
  mutate_if(is.numeric,round)

## # A tibble: 234 × 11
##    manufacturer model      displ  year   cyl trans drv     cty   hwy fl    class
##    <chr>        <chr>      <dbl> <dbl> <dbl> <chr> <chr> <dbl> <dbl> <chr> <chr>
##  1 audi         a4             2  1999     4 auto… f        18    29 p     comp…
##  2 audi         a4             2  1999     4 manu… f        21    29 p     comp…
##  3 audi         a4             2  2008     4 manu… f        20    31 p     comp…
##  4 audi         a4             2  2008     4 auto… f        21    30 p     comp…
##  5 audi         a4             3  1999     6 auto… f        16    26 p     comp…
##  6 audi         a4             3  1999     6 manu… f        18    26 p     comp…
##  7 audi         a4             3  2008     6 auto… f        18    27 p     comp…
##  8 audi         a4 quattro     2  1999     4 manu… 4        18    26 p     comp…
##  9 audi         a4 quattro     2  1999     4 auto… 4        16    25 p     comp…
## 10 audi         a4 quattro     2  2008     4 manu… 4        20    28 p     comp…
## # … with 224 more rows

mutate_at() need to select columns in vars().

mpg %>% 
  select(manufacturer,model,displ,cyl) %>% 
  mutate_at(vars(displ,cyl),~(.*2))

## # A tibble: 234 × 4
##    manufacturer model      displ   cyl
##    <chr>        <chr>      <dbl> <dbl>
##  1 audi         a4           3.6     8
##  2 audi         a4           3.6     8
##  3 audi         a4           4       8
##  4 audi         a4           4       8
##  5 audi         a4           5.6    12
##  6 audi         a4           5.6    12
##  7 audi         a4           6.2    12
##  8 audi         a4 quattro   3.6     8
##  9 audi         a4 quattro   3.6     8
## 10 audi         a4 quattro   4       8
## # … with 224 more rows

case_when() can create categorical data.

mpg %>% 
  select(manufacturer,model,year) %>% 
  mutate(year2=case_when(
    year<2000~"very old",
    year<2005~"old",
    TRUE~"new"
  ))

## # A tibble: 234 × 4
##    manufacturer model       year year2   
##    <chr>        <chr>      <int> <chr>   
##  1 audi         a4          1999 very old
##  2 audi         a4          1999 very old
##  3 audi         a4          2008 new     
##  4 audi         a4          2008 new     
##  5 audi         a4          1999 very old
##  6 audi         a4          1999 very old
##  7 audi         a4          2008 new     
##  8 audi         a4 quattro  1999 very old
##  9 audi         a4 quattro  1999 very old
## 10 audi         a4 quattro  2008 new     
## # … with 224 more rows

29.5 rowwise()

rowwise() can process data by row.

mpg %>% 
  select_if(is.numeric) %>% 
  rowwise() %>% 
  mutate(mean = mean(c_across(displ:hwy)))

## # A tibble: 234 × 6
## # Rowwise: 
##    displ  year   cyl   cty   hwy  mean
##    <dbl> <int> <int> <int> <int> <dbl>
##  1   1.8  1999     4    18    29  410.
##  2   1.8  1999     4    21    29  411.
##  3   2    2008     4    20    31  413 
##  4   2    2008     4    21    30  413 
##  5   2.8  1999     6    16    26  410.
##  6   2.8  1999     6    18    26  410.
##  7   3.1  2008     6    18    27  412.
##  8   1.8  1999     4    18    26  410.
##  9   1.8  1999     4    16    25  409.
## 10   2    2008     4    20    28  412.
## # … with 224 more rows
…
