…
```r
iris %>%
  as_tibble() %>%
  mutate(median_petal_length = median(Petal.Length),
         has_long_petals = Petal.Length > median_petal_length,
         has_long_petals = as.numeric(has_long_petals)) %>%  
  select(Petal.Length, median_petal_length, has_long_petals)
```

```
## # A tibble: 150 × 3
##    Petal.Length median_petal_length has_long_petals
##           <dbl>               <dbl>           <dbl>
##  1          1.4                4.35               0
##  2          1.4                4.35               0
##  3          1.3                4.35               0
##  4          1.5                4.35               0
##  5          1.4                4.35               0
##  6          1.7                4.35               0
##  7          1.4                4.35               0
##  8          1.5                4.35               0
##  9          1.4                4.35               0
## 10          1.5                4.35               0
## # … with 140 more rows
```

use mutate_all to apply function to all the rows and columns

```r
msleep %>%
  mutate_all(tolower)
```

```
## # A tibble: 83 × 11
##    name   genus vore  order conse…¹ sleep…² sleep…³ sleep…⁴ awake brainwt bodywt
##    <chr>  <chr> <chr> <chr> <chr>   <chr>   <chr>   <chr>   <chr> <chr>   <chr> 
##  1 cheet… acin… carni carn… lc      12.1    <NA>    <NA>    11.9  <NA>    50    
##  2 owl m… aotus omni  prim… <NA>    17      1.8     <NA>    7     0.0155  0.48  
##  3 mount… aplo… herbi rode… nt      14.4    2.4     <NA>    9.6   <NA>    1.35  
##  4 great… blar… omni  sori… lc      14.9    2.3     0.1333… 9.1   0.00029 0.019 
##  5 cow    bos   herbi arti… domest… 4       0.7     0.6666… 20    0.423   600   
##  6 three… brad… herbi pilo… <NA>    14.4    2.2     0.7666… 9.6   <NA>    3.85  
##  7 north… call… carni carn… vu      8.7     1.4     0.3833… 15.3  <NA>    20.49 
##  8 vespe… calo… <NA>  rode… <NA>    7       <NA>    <NA>    17    <NA>    0.045 
##  9 dog    canis carni carn… domest… 10.1    2.9     0.3333… 13.9  0.07    14    
## 10 roe d… capr… herbi arti… lc      3       <NA>    <NA>    21    0.0982  14.8  
## # … with 73 more rows, and abbreviated variable names ¹​conservation,
## #   ²​sleep_total, ³​sleep_rem, ⁴​sleep_cycle
```
…
