Chapter 49 Tutorial for gg_cleveland | EDAV Fall 2021 Tues/Thurs Community Contributions
…
##        n lower upper count   overlap
##    <int> <dbl> <dbl> <table>   <int>
##  1     1    15   215 54            6
##  2     2   205   305 57            7
##  3     3   295   355 56            0
##  4     4   355   425 53            7
##  5     5   415   495 64            8
##  6     6   485   565 58            6
##  7     7   555   645 59           10
##  8     8   635   735 58            7
##  9     9   725   895 56            1
## 10    10   885  2435 52           NA
## 
## $df_long
## # A tibble: 567 × 19
##    restaurant item      calories cal_fat total_fat sat_fat trans_fat cholesterol
##    <chr>      <chr>        <dbl>   <dbl>     <dbl>   <dbl>     <dbl>       <dbl>
##  1 Mcdonalds  Artisan …      380      60         7       2       0            95
##  2 Mcdonalds  Single B…      840     410        45      17       1.5         130
##  3 Mcdonalds  Double B…     1130     600        67      27       3           220
##  4 Mcdonalds  Grilled …      750     280        31      10       0.5         155
##  5 Mcdonalds  Crispy B…      920     410        45      12       0.5         120
##  6 Mcdonalds  Big Mac        540     250        28      10       1            80
##  7 Mcdonalds  Cheesebu…      300     100        12       5       0.5          40
##  8 Mcdonalds  Cheesebu…      300     100        12       5       0.5          40
##  9 Mcdonalds  Classic …      510     210        24       4       0            65
## 10 Mcdonalds  Double C…      430     190        21      11       1            85
## # … with 557 more rows, and 11 more variables: sodium <dbl>, total_carb <dbl>,
## #   fiber <dbl>, sugar <dbl>, protein <dbl>, vit_a <dbl>, vit_c <dbl>,
## #   calcium <dbl>, salad <chr>, id <int>, interval <fct>
…
